{
  "M2": {
      "options": [
        {
          "key": "M4",
          "value": "Visited but Refused/Postponed (M4)"
        },
        {
          "key": "M5",
          "value": "Visited & Positive (M5)",
          "followup date label": "Expected Enrollment Date"
        },
        {
          "key": "M6",
          "value": "Enrollment Confirmed but not paid (M6)",
          "followup date label": "Expected Admission Date"
        }
      ]
  },
  "M3": {
      "options": [
      {
        "key": "M4",
        "value": "Visited but Refused/Postponed (M4)"
      },
      {
        "key": "M5",
        "value": "Visited & Positive (M5)",
        "followup date label": "Expected Enrollment Date"
      },
      {
        "key": "M6",
        "value": "Enrollment Confirmed but not paid (M6)",
        "followup date label": "Expected Admission Date"
      }
    ]
  },
  "M3+": {
    "options": [
      {
        "key": "M4",
        "value": "Visited but Refused/Postponed (M4)"
      },
      {
        "key": "M5",
        "value": "Visited & Positive (M5)",
        "followup date label": "Expected Enrollment Date"
      },
      {
        "key": "M6",
        "value": "Enrollment Confirmed but not paid (M6)",
        "followup date label": "Expected Admission Date"
      }
    ]
  },
  "M4": {
    "options": [
      {
        "key": "M4",
        "value": "Visited but Refused/Postponed (M4)"
      },
      {
        "key": "M5",
        "value": "Visited & Positive (M5)",
        "followup date label": "Expected Enrollment Date"
      },
      {
        "key": "M6",
        "value": "Enrollment Confirmed but not paid (M6)",
        "followup date label": "Expected Admission Date"
      }
    ]
  },
  "M5": {
    "options": [
      {
        "key": "M4",
        "value": "Visited but Refused/Postponed (M4)"
      },
      {
        "key": "M5",
        "value": "Visited & Positive (M5)",
        "followup date label": "Expected Enrollment Date"
      },
      {
        "key": "M6",
        "value": "Enrollment Confirmed but not paid (M6)",
        "followup date label": "Expected Admission Date"
      }
    ]
  },
  "M6": {
    "options": [
      {
        "key": "L_Not Interested_M4",
        "value": "Visited but Refused/Postponed (M4)"
      },
      {
        "key": "M5",
        "value": "Visited & Positive (M5)",
        "followup date label": "Expected Enrollment Date"
      },
      {
        "key": "M6",
        "value": "Enrollment Confirmed but not paid (M6)",
        "followup date label": "Expected Admission Date"
      }
    ]
  }
}